"#version 410\n"
"\n"
"in vec3 fpos;\n"
"in vec2 fuv;\n"
"\n"
"layout(location = 0) out vec4 out_color;\n"
"\n"
"uniform sampler2D tex;\n"
"\n"
"vec4 YUV2RGB(vec4 c)\n"
"{\n"
"    float R = dot(vec3( 1.000, 0.000, 1.140), c.rgb);//1.000Y          + 1.402V\n"
"    float G = dot(vec3( 1.000,-0.395,-0.580), c.rgb);//1.000Y - 0.344U - 0.714V\n"
"    float B = dot(vec3( 1.000, 2.032, 0.000), c.rgb);//1.000Y + 1.772U\n"
"    return vec4(R,G,B,c.a);\n"
"}\n"
"\n"
"void main()\n"
"{\n"
"    out_color = YUV2RGB( texture(tex, fuv) );//texture(tex, fuv);//\n"
"}\n"
