{
  "node_type":"list",
  "contents":
    [
      {
        "node_type":"shader_def",
        "type":
          {
            "node_type":"type",
            "attributes":[],
            "name":"imager"
          },
        "name":"a1",
        "arguments":
          {
            "node_type":"list",
            "contents":
              [
                {
                  "node_type":"type_variables_def",
                  "type":
                    {
                      "node_type":"type",
                      "attributes":[],
                      "name":"float"
                    },
                  "variables":
                    {
                      "node_type":"list",
                      "contents":
                        [
                          {
                            "node_type":"variable_def",
                            "name":"k",
                            "definition":
                              {}
                          }
                        ]
                    }
                }
              ]
          }
      }
    ]
}
{
  "node_type":"list",
  "contents":
    [
      {
        "node_type":"shader_def",
        "type":
          {
            "node_type":"type",
            "attributes":[],
            "name":"surface"
          },
        "name":"array_initialiser_bug1502751",
        "arguments":
          {
            "node_type":"list",
            "contents":[]
          }
      }
    ]
}
{
  "node_type":"list",
  "contents":
    [
      {
        "node_type":"shader_def",
        "type":
          {
            "node_type":"type",
            "attributes":[],
            "name":"imager"
          },
        "name":"bluescreen",
        "arguments":
          {
            "node_type":"list",
            "contents":
              [
                {
                  "node_type":"type_variables_def",
                  "type":
                    {
                      "node_type":"type",
                      "attributes":[],
                      "name":"color"
                    },
                  "variables":
                    {
                      "node_type":"list",
                      "contents":
                        [
                          {
                            "node_type":"variable_def",
                            "name":"background",
                            "definition":

                          }
                        ]
                    }
                },
                {
                  "node_type":"type_variables_def",
                  "type":
                    {
                      "node_type":"type",
                      "attributes":[],
                      "name":"string"
                    },
                  "variables":
                    {
                      "node_type":"list",
                      "contents":
                        [
                          {
                            "node_type":"variable_def",
                            "name":"texturename",
                            "definition":

                          }
                        ]
                    }
                }
              ]
          }
      }
    ]
}
{
  "node_type":"list",
  "contents":
    [
      {
        "node_type":"shader_def",
        "type":
          {
            "node_type":"type",
            "attributes":[],
            "name":"surface"
          },
        "name":"cellnoisetest",
        "arguments":
          {
            "node_type":"list",
            "contents":
              [
                {
                  "node_type":"type_variables_def",
                  "type":
                    {
                      "node_type":"type",
                      "attributes":[],
                      "name":"float"
                    },
                  "variables":
                    {
                      "node_type":"list",
                      "contents":
                        [
                          {
                            "node_type":"variable_def",
                            "name":"Ka",
                            "definition":

                          }
                        ]
                    }
                },
                {
                  "node_type":"type_variables_def",
                  "type":
                    {
                      "node_type":"type",
                      "attributes":[],
                      "name":"float"
                    },
                  "variables":
                    {
                      "node_type":"list",
                      "contents":
                        [
                          {
                            "node_type":"variable_def",
                            "name":"Kd",
                            "definition":

                          }
                        ]
                    }
                },
                {
                  "node_type":"type_variables_def",
                  "type":
                    {
                      "node_type":"type",
                      "attributes":[],
                      "name":"float"
                    },
                  "variables":
                    {
                      "node_type":"list",
                      "contents":
                        [
                          {
                            "node_type":"variable_def",
                            "name":"Ks",
                            "definition":

                          }
                        ]
                    }
                },
                {
                  "node_type":"type_variables_def",
                  "type":
                    {
                      "node_type":"type",
                      "attributes":[],
                      "name":"float"
                    },
                  "variables":
                    {
                      "node_type":"list",
                      "contents":
                        [
                          {
                            "node_type":"variable_def",
                            "name":"roughness",
                            "definition":

                          }
                        ]
                    }
                },
                {
                  "node_type":"type_variables_def",
                  "type":
                    {
                      "node_type":"type",
                      "attributes":[],
                      "name":"color"
                    },
                  "variables":
                    {
                      "node_type":"list",
                      "contents":
                        [
                          {
                            "node_type":"variable_def",
                            "name":"specularcolor",
                            "definition":

                          }
                        ]
                    }
                }
              ]
          }
      }
    ]
}
{
  "node_type":"list",
  "contents":
    [
      {
        "node_type":"shader_def",
        "type":
          {
            "node_type":"type",
            "attributes":[],
            "name":"surface"
          },
        "name":"curvetube",
        "arguments":
          {
            "node_type":"list",
            "contents":
              [
                {
                  "node_type":"type_variables_def",
                  "type":
                    {
                      "node_type":"type",
                      "attributes":[],
                      "name":"float"
                    },
                  "variables":
                    {
                      "node_type":"list",
                      "contents":
                        [
                          {
                            "node_type":"variable_def",
                            "name":"Ka",
                            "definition":

                          }
                        ]
                    }
                },
                {
                  "node_type":"type_variables_def",
                  "type":
                    {
                      "node_type":"type",
                      "attributes":[],
                      "name":"float"
                    },
                  "variables":
                    {
                      "node_type":"list",
                      "contents":
                        [
                          {
                            "node_type":"variable_def",
                            "name":"Kd",
                            "definition":

                          }
                        ]
                    }
                },
                {
                  "node_type":"type_variables_def",
                  "type":
                    {
                      "node_type":"type",
                      "attributes":[],
                      "name":"float"
                    },
                  "variables":
                    {
                      "node_type":"list",
                      "contents":
                        [
                          {
                            "node_type":"variable_def",
                            "name":"Ks",
                            "definition":

                          }
                        ]
                    }
                },
                {
                  "node_type":"type_variables_def",
                  "type":
                    {
                      "node_type":"type",
                      "attributes":[],
                      "name":"float"
                    },
                  "variables":
                    {
                      "node_type":"list",
                      "contents":
                        [
                          {
                            "node_type":"variable_def",
                            "name":"roughness",
                            "definition":

                          }
                        ]
                    }
                },
                {
                  "node_type":"type_variables_def",
                  "type":
                    {
                      "node_type":"type",
                      "attributes":[],
                      "name":"color"
                    },
                  "variables":
                    {
                      "node_type":"list",
                      "contents":
                        [
                          {
                            "node_type":"variable_def",
                            "name":"specularcolor",
                            "definition":

                          }
                        ]
                    }
                },
                {
                  "node_type":"type_variables_def",
                  "type":
                    {
                      "node_type":"type",
                      "attributes": ["uniform"],
                      "name":"float"
                    },
                  "variables":
                    {
                      "node_type":"list",
                      "contents":
                        [
                          {
                            "node_type":"variable_def",
                            "name":"constantwidth",
                            "definition":

                          }
                        ]
                    }
                }
              ]
          }
      }
    ]
}
{
  "node_type":"list",
  "contents":
    [
      {
        "node_type":"shader_def",
        "type":
          {
            "node_type":"type",
            "attributes":[],
            "name":"displacement"
          },
        "name":"dented",
        "arguments":
          {
            "node_type":"list",
            "contents":
              [
                {
                  "node_type":"type_variables_def",
                  "type":
                    {
                      "node_type":"type",
                      "attributes":[],
                      "name":"float"
                    },
                  "variables":
                    {
                      "node_type":"list",
                      "contents":
                        [
                          {
                            "node_type":"variable_def",
                            "name":"Km",
                            "definition":

                          }
                        ]
                    }
                },
                {
                  "node_type":"type_variables_def",
                  "type":
                    {
                      "node_type":"type",
                      "attributes":[],
                      "name":"float"
                    },
                  "variables":
                    {
                      "node_type":"list",
                      "contents":
                        [
                          {
                            "node_type":"variable_def",
                            "name":"power",
                            "definition":

                          }
                        ]
                    }
                },
                {
                  "node_type":"type_variables_def",
                  "type":
                    {
                      "node_type":"type",
                      "attributes":[],
                      "name":"float"
                    },
                  "variables":
                    {
                      "node_type":"list",
                      "contents":
                        [
                          {
                            "node_type":"variable_def",
                            "name":"frequency",
                            "definition":

                          }
                        ]
                    }
                },
                {
                  "node_type":"type_variables_def",
                  "type":
                    {
                      "node_type":"type",
                      "attributes":[],
                      "name":"float"
                    },
                  "variables":
                    {
                      "node_type":"list",
                      "contents":
                        [
                          {
                            "node_type":"variable_def",
                            "name":"maxoctaves",
                            "definition":

                          }
                        ]
                    }
                }
              ]
          }
      }
    ]
}
{
  "node_type":"list",
  "contents":
    [
      {
        "node_type":"shader_def",
        "type":
          {
            "node_type":"type",
            "attributes":[],
            "name":"surface"
          },
        "name":"face_plastic",
        "arguments":
          {
            "node_type":"list",
            "contents":
              [
                {
                  "node_type":"type_variables_def",
                  "type":
                    {
                      "node_type":"type",
                      "attributes":[],
                      "name":"float"
                    },
                  "variables":
                    {
                      "node_type":"list",
                      "contents":
                        [
                          {
                            "node_type":"variable_def",
                            "name":"Ka",
                            "definition":

                          }
                        ]
                    }
                },
                {
                  "node_type":"type_variables_def",
                  "type":
                    {
                      "node_type":"type",
                      "attributes":[],
                      "name":"float"
                    },
                  "variables":
                    {
                      "node_type":"list",
                      "contents":
                        [
                          {
                            "node_type":"variable_def",
                            "name":"Kd",
                            "definition":

                          }
                        ]
                    }
                },
                {
                  "node_type":"type_variables_def",
                  "type":
                    {
                      "node_type":"type",
                      "attributes":[],
                      "name":"float"
                    },
                  "variables":
                    {
                      "node_type":"list",
                      "contents":
                        [
                          {
                            "node_type":"variable_def",
                            "name":"Ks",
                            "definition":

                          }
                        ]
                    }
                },
                {
                  "node_type":"type_variables_def",
                  "type":
                    {
                      "node_type":"type",
                      "attributes":[],
                      "name":"float"
                    },
                  "variables":
                    {
                      "node_type":"list",
                      "contents":
                        [
                          {
                            "node_type":"variable_def",
                            "name":"roughness",
                            "definition":

                          }
                        ]
                    }
                },
                {
                  "node_type":"type_variables_def",
                  "type":
                    {
                      "node_type":"type",
                      "attributes":[],
                      "name":"color"
                    },
                  "variables":
                    {
                      "node_type":"list",
                      "contents":
                        [
                          {
                            "node_type":"variable_def",
                            "name":"specularcolor",
                            "definition":

                          }
                        ]
                    }
                },
                {
                  "node_type":"type_variables_def",
                  "type":
                    {
                      "node_type":"type",
                      "attributes": ["uniform"],
                      "name":"color"
                    },
                  "variables":
                    {
                      "node_type":"list",
                      "contents":
                        [
                          {
                            "node_type":"variable_def",
                            "name":"facecol",
                            "definition":

                          }
                        ]
                    }
                }
              ]
          }
      }
    ]
}
{
  "node_type":"list",
  "contents":
    [
      {
        "node_type":"shader_def",
        "type":
          {
            "node_type":"type",
            "attributes":[],
            "name":"imager"
          },
        "name":"fisheye_projection",
        "arguments":
          {
            "node_type":"list",
            "contents":
              [
                {
                  "node_type":"type_variables_def",
                  "type":
                    {
                      "node_type":"type",
                      "attributes":[],
                      "name":"string"
                    },
                  "variables":
                    {
                      "node_type":"list",
                      "contents":
                        [
                          {
                            "node_type":"variable_def",
                            "name":"texturename",
                            "definition":

                          }
                        ]
                    }
                },
                {
                  "node_type":"type_variables_def",
                  "type":
                    {
                      "node_type":"type",
                      "attributes":[],
                      "name":"float"
                    },
                  "variables":
                    {
                      "node_type":"list",
                      "contents":
                        [
                          {
                            "node_type":"variable_def",
                            "name":"thetaMax",
                            "definition":

                          }
                        ]
                    }
                },
                {
                  "node_type":"type_variables_def",
                  "type":
                    {
                      "node_type":"type",
                      "attributes":[],
                      "name":"float"
                    },
                  "variables":
                    {
                      "node_type":"list",
                      "contents":
                        [
                          {
                            "node_type":"variable_def",
                            "name":"xzAngle",
                            "definition":

                          }
                        ]
                    }
                },
                {
                  "node_type":"type_variables_def",
                  "type":
                    {
                      "node_type":"type",
                      "attributes":[],
                      "name":"float"
                    },
                  "variables":
                    {
                      "node_type":"list",
                      "contents":
                        [
                          {
                            "node_type":"variable_def",
                            "name":"blur",
                            "definition":

                          }
                        ]
                    }
                }
              ]
          }
      }
    ]
}
{
  "node_type":"list",
  "contents":
    [
      {
        "node_type":"function_def",
        "type":
          {
            "node_type":"type",
            "attributes":[],
            "name":"float"
          },
        "name":"foo",
        "arguments":
          {
            "node_type":"list",
            "contents":
              [
                {
                  "node_type":"type_variables_def",
                  "type":
                    {
                      "node_type":"type",
                      "attributes":[],
                      "name":"float"
                    },
                  "variables":
                    {
                      "node_type":"list",
                      "contents":
                        [
                          {
                            "node_type":"variable_def",
                            "name":"a",
                            "definition":
                              {}
                          }
                        ]
                    }
                }
              ]
          }
      },
      {
        "node_type":"function_def",
        "type":
          {
            "node_type":"type",
            "attributes":[],
            "name":"vector"
          },
        "name":"foo",
        "arguments":
          {
            "node_type":"list",
            "contents":
              [
                {
                  "node_type":"type_variables_def",
                  "type":
                    {
                      "node_type":"type",
                      "attributes":[],
                      "name":"vector"
                    },
                  "variables":
                    {
                      "node_type":"list",
                      "contents":
                        [
                          {
                            "node_type":"variable_def",
                            "name":"a",
                            "definition":
                              {}
                          }
                        ]
                    }
                }
              ]
          }
      },
      {
        "node_type":"function_def",
        "type":
          {
            "node_type":"type",
            "attributes":[],
            "name":"string"
          },
        "name":"foo",
        "arguments":
          {
            "node_type":"list",
            "contents":
              [
                {
                  "node_type":"type_variables_def",
                  "type":
                    {
                      "node_type":"type",
                      "attributes":[],
                      "name":"string"
                    },
                  "variables":
                    {
                      "node_type":"list",
                      "contents":
                        [
                          {
                            "node_type":"variable_def",
                            "name":"a",
                            "definition":
                              {}
                          }
                        ]
                    }
                }
              ]
          }
      },
      {
        "node_type":"shader_def",
        "type":
          {
            "node_type":"type",
            "attributes":[],
            "name":"surface"
          },
        "name":"function_overloading_bug2644580",
        "arguments":
          {
            "node_type":"list",
            "contents":[]
          }
      }
    ]
}
{
  "node_type":"list",
  "contents":
    [
      {
        "node_type":"shader_def",
        "type":
          {
            "node_type":"type",
            "attributes":[],
            "name":"surface"
          },
        "name":"map",
        "arguments":
          {
            "node_type":"list",
            "contents":
              [
                {
                  "node_type":"type_variables_def",
                  "type":
                    {
                      "node_type":"type",
                      "attributes":[],
                      "name":"string"
                    },
                  "variables":
                    {
                      "node_type":"list",
                      "contents":
                        [
                          {
                            "node_type":"variable_def",
                            "name":"map",
                            "definition":

                          }
                        ]
                    }
                }
              ]
          }
      }
    ]
}
{
  "node_type":"list",
  "contents":
    [
      {
        "node_type":"shader_def",
        "type":
          {
            "node_type":"type",
            "attributes":[],
            "name":"surface"
          },
        "name":"paintedconstant",
        "arguments":
          {
            "node_type":"list",
            "contents":
              [
                {
                  "node_type":"type_variables_def",
                  "type":
                    {
                      "node_type":"type",
                      "attributes":[],
                      "name":"string"
                    },
                  "variables":
                    {
                      "node_type":"list",
                      "contents":
                        [
                          {
                            "node_type":"variable_def",
                            "name":"texturename",
                            "definition":

                          }
                        ]
                    }
                }
              ]
          }
      }
    ]
}
{
  "node_type":"list",
  "contents":
    [
      {
        "node_type":"shader_def",
        "type":
          {
            "node_type":"type",
            "attributes":[],
            "name":"surface"
          },
        "name":"paintedplastic",
        "arguments":
          {
            "node_type":"list",
            "contents":
              [
                {
                  "node_type":"type_variables_def",
                  "type":
                    {
                      "node_type":"type",
                      "attributes":[],
                      "name":"float"
                    },
                  "variables":
                    {
                      "node_type":"list",
                      "contents":
                        [
                          {
                            "node_type":"variable_def",
                            "name":"Ka",
                            "definition":

                          },
                          {
                            "node_type":"variable_def",
                            "name":"Kd",
                            "definition":

                          },
                          {
                            "node_type":"variable_def",
                            "name":"Ks",
                            "definition":

                          },
                          {
                            "node_type":"variable_def",
                            "name":"roughness",
                            "definition":

                          }
                        ]
                    }
                },
                {
                  "node_type":"type_variables_def",
                  "type":
                    {
                      "node_type":"type",
                      "attributes":[],
                      "name":"color"
                    },
                  "variables":
                    {
                      "node_type":"list",
                      "contents":
                        [
                          {
                            "node_type":"variable_def",
                            "name":"specularcolor",
                            "definition":

                          }
                        ]
                    }
                },
                {
                  "node_type":"type_variables_def",
                  "type":
                    {
                      "node_type":"type",
                      "attributes":[],
                      "name":"string"
                    },
                  "variables":
                    {
                      "node_type":"list",
                      "contents":
                        [
                          {
                            "node_type":"variable_def",
                            "name":"texturename",
                            "definition":

                          }
                        ]
                    }
                }
              ]
          }
      }
    ]
}
{
  "node_type":"list",
  "contents":
    [
      {
        "node_type":"shader_def",
        "type":
          {
            "node_type":"type",
            "attributes":[],
            "name":"surface"
          },
        "name":"plastic",
        "arguments":
          {
            "node_type":"list",
            "contents":
              [
                {
                  "node_type":"type_variables_def",
                  "type":
                    {
                      "node_type":"type",
                      "attributes":[],
                      "name":"float"
                    },
                  "variables":
                    {
                      "node_type":"list",
                      "contents":
                        [
                          {
                            "node_type":"variable_def",
                            "name":"Ka",
                            "definition":

                          }
                        ]
                    }
                },
                {
                  "node_type":"type_variables_def",
                  "type":
                    {
                      "node_type":"type",
                      "attributes":[],
                      "name":"float"
                    },
                  "variables":
                    {
                      "node_type":"list",
                      "contents":
                        [
                          {
                            "node_type":"variable_def",
                            "name":"Kd",
                            "definition":

                          }
                        ]
                    }
                },
                {
                  "node_type":"type_variables_def",
                  "type":
                    {
                      "node_type":"type",
                      "attributes":[],
                      "name":"float"
                    },
                  "variables":
                    {
                      "node_type":"list",
                      "contents":
                        [
                          {
                            "node_type":"variable_def",
                            "name":"Ks",
                            "definition":

                          }
                        ]
                    }
                },
                {
                  "node_type":"type_variables_def",
                  "type":
                    {
                      "node_type":"type",
                      "attributes":[],
                      "name":"float"
                    },
                  "variables":
                    {
                      "node_type":"list",
                      "contents":
                        [
                          {
                            "node_type":"variable_def",
                            "name":"roughness",
                            "definition":

                          }
                        ]
                    }
                },
                {
                  "node_type":"type_variables_def",
                  "type":
                    {
                      "node_type":"type",
                      "attributes":[],
                      "name":"color"
                    },
                  "variables":
                    {
                      "node_type":"list",
                      "contents":
                        [
                          {
                            "node_type":"variable_def",
                            "name":"specularcolor",
                            "definition":

                          }
                        ]
                    }
                }
              ]
          }
      }
    ]
}
{
  "node_type":"list",
  "contents":
    [
      {
        "node_type":"shader_def",
        "type":
          {
            "node_type":"type",
            "attributes":[],
            "name":"imager"
          },
        "name":"sample_buster",
        "arguments":
          {
            "node_type":"list",
            "contents":
              [
                {
                  "node_type":"type_variables_def",
                  "type":
                    {
                      "node_type":"type",
                      "attributes":[],
                      "name":"color"
                    },
                  "variables":
                    {
                      "node_type":"list",
                      "contents":
                        [
                          {
                            "node_type":"variable_def",
                            "name":"bgcolor",
                            "definition":

                          }
                        ]
                    }
                }
              ]
          }
      }
    ]
}
{
  "node_type":"list",
  "contents":
    [
      {
        "node_type":"shader_def",
        "type":
          {
            "node_type":"type",
            "attributes":[],
            "name":"light"
          },
        "name":"shadowspot",
        "arguments":
          {
            "node_type":"list",
            "contents":
              [
                {
                  "node_type":"type_variables_def",
                  "type":
                    {
                      "node_type":"type",
                      "attributes":[],
                      "name":"float"
                    },
                  "variables":
                    {
                      "node_type":"list",
                      "contents":
                        [
                          {
                            "node_type":"variable_def",
                            "name":"intensity",
                            "definition":

                          }
                        ]
                    }
                },
                {
                  "node_type":"type_variables_def",
                  "type":
                    {
                      "node_type":"type",
                      "attributes":[],
                      "name":"color"
                    },
                  "variables":
                    {
                      "node_type":"list",
                      "contents":
                        [
                          {
                            "node_type":"variable_def",
                            "name":"lightcolor",
                            "definition":

                          }
                        ]
                    }
                },
                {
                  "node_type":"type_variables_def",
                  "type":
                    {
                      "node_type":"type",
                      "attributes":[],
                      "name":"point"
                    },
                  "variables":
                    {
                      "node_type":"list",
                      "contents":
                        [
                          {
                            "node_type":"variable_def",
                            "name":"from",
                            "definition":

                          }
                        ]
                    }
                },
                {
                  "node_type":"type_variables_def",
                  "type":
                    {
                      "node_type":"type",
                      "attributes":[],
                      "name":"point"
                    },
                  "variables":
                    {
                      "node_type":"list",
                      "contents":
                        [
                          {
                            "node_type":"variable_def",
                            "name":"to",
                            "definition":

                          }
                        ]
                    }
                },
                {
                  "node_type":"type_variables_def",
                  "type":
                    {
                      "node_type":"type",
                      "attributes":[],
                      "name":"float"
                    },
                  "variables":
                    {
                      "node_type":"list",
                      "contents":
                        [
                          {
                            "node_type":"variable_def",
                            "name":"coneangle",
                            "definition":

                          }
                        ]
                    }
                },
                {
                  "node_type":"type_variables_def",
                  "type":
                    {
                      "node_type":"type",
                      "attributes":[],
                      "name":"float"
                    },
                  "variables":
                    {
                      "node_type":"list",
                      "contents":
                        [
                          {
                            "node_type":"variable_def",
                            "name":"conedeltaangle",
                            "definition":

                          }
                        ]
                    }
                },
                {
                  "node_type":"type_variables_def",
                  "type":
                    {
                      "node_type":"type",
                      "attributes":[],
                      "name":"float"
                    },
                  "variables":
                    {
                      "node_type":"list",
                      "contents":
                        [
                          {
                            "node_type":"variable_def",
                            "name":"beamdistribution",
                            "definition":

                          }
                        ]
                    }
                },
                {
                  "node_type":"type_variables_def",
                  "type":
                    {
                      "node_type":"type",
                      "attributes":[],
                      "name":"string"
                    },
                  "variables":
                    {
                      "node_type":"list",
                      "contents":
                        [
                          {
                            "node_type":"variable_def",
                            "name":"shadowname",
                            "definition":

                          }
                        ]
                    }
                },
                {
                  "node_type":"type_variables_def",
                  "type":
                    {
                      "node_type":"type",
                      "attributes":[],
                      "name":"float"
                    },
                  "variables":
                    {
                      "node_type":"list",
                      "contents":
                        [
                          {
                            "node_type":"variable_def",
                            "name":"samples",
                            "definition":

                          }
                        ]
                    }
                },
                {
                  "node_type":"type_variables_def",
                  "type":
                    {
                      "node_type":"type",
                      "attributes":[],
                      "name":"float"
                    },
                  "variables":
                    {
                      "node_type":"list",
                      "contents":
                        [
                          {
                            "node_type":"variable_def",
                            "name":"width",
                            "definition":

                          }
                        ]
                    }
                },
                {
                  "node_type":"type_variables_def",
                  "type":
                    {
                      "node_type":"type",
                      "attributes":[],
                      "name":"float"
                    },
                  "variables":
                    {
                      "node_type":"list",
                      "contents":
                        [
                          {
                            "node_type":"variable_def",
                            "name":"blur",
                            "definition":

                          }
                        ]
                    }
                },
                {
                  "node_type":"type_variables_def",
                  "type":
                    {
                      "node_type":"type",
                      "attributes":[],
                      "name":"float"
                    },
                  "variables":
                    {
                      "node_type":"list",
                      "contents":
                        [
                          {
                            "node_type":"variable_def",
                            "name":"falloff",
                            "definition":

                          }
                        ]
                    }
                }
              ]
          }
      }
    ]
}
{
  "node_type":"list",
  "contents":
    [
      {
        "node_type":"shader_def",
        "type":
          {
            "node_type":"type",
            "attributes":[],
            "name":"surface"
          },
        "name":"shinymetal",
        "arguments":
          {
            "node_type":"list",
            "contents":
              [
                {
                  "node_type":"type_variables_def",
                  "type":
                    {
                      "node_type":"type",
                      "attributes":[],
                      "name":"float"
                    },
                  "variables":
                    {
                      "node_type":"list",
                      "contents":
                        [
                          {
                            "node_type":"variable_def",
                            "name":"Ka",
                            "definition":

                          },
                          {
                            "node_type":"variable_def",
                            "name":"Ks",
                            "definition":

                          },
                          {
                            "node_type":"variable_def",
                            "name":"Kr",
                            "definition":

                          }
                        ]
                    }
                },
                {
                  "node_type":"type_variables_def",
                  "type":
                    {
                      "node_type":"type",
                      "attributes":[],
                      "name":"float"
                    },
                  "variables":
                    {
                      "node_type":"list",
                      "contents":
                        [
                          {
                            "node_type":"variable_def",
                            "name":"roughness",
                            "definition":

                          }
                        ]
                    }
                },
                {
                  "node_type":"type_variables_def",
                  "type":
                    {
                      "node_type":"type",
                      "attributes":[],
                      "name":"string"
                    },
                  "variables":
                    {
                      "node_type":"list",
                      "contents":
                        [
                          {
                            "node_type":"variable_def",
                            "name":"texturename",
                            "definition":

                          }
                        ]
                    }
                }
              ]
          }
      }
    ]
}
{
  "node_type":"list",
  "contents":
    [
      {
        "node_type":"shader_def",
        "type":
          {
            "node_type":"type",
            "attributes":[],
            "name":"surface"
          },
        "name":"show_N",
        "arguments":
          {
            "node_type":"list",
            "contents":
              [
                {
                  "node_type":"type_variables_def",
                  "type":
                    {
                      "node_type":"type",
                      "attributes":[],
                      "name":"float"
                    },
                  "variables":
                    {
                      "node_type":"list",
                      "contents":
                        [
                          {
                            "node_type":"variable_def",
                            "name":"use_Ng",
                            "definition":

                          }
                        ]
                    }
                }
              ]
          }
      }
    ]
}
{
  "node_type":"list",
  "contents":
    [
      {
        "node_type":"shader_def",
        "type":
          {
            "node_type":"type",
            "attributes":[],
            "name":"surface"
          },
        "name":"show_away_facing_normals",
        "arguments":
          {
            "node_type":"list",
            "contents":[]
          }
      }
    ]
}
{
  "node_type":"list",
  "contents":
    [
      {
        "node_type":"shader_def",
        "type":
          {
            "node_type":"type",
            "attributes":[],
            "name":"surface"
          },
        "name":"show_dpdu",
        "arguments":
          {
            "node_type":"list",
            "contents":[]
          }
      }
    ]
}
{
  "node_type":"list",
  "contents":
    [
      {
        "node_type":"shader_def",
        "type":
          {
            "node_type":"type",
            "attributes":[],
            "name":"surface"
          },
        "name":"show_micropolys",
        "arguments":
          {
            "node_type":"list",
            "contents":[]
          }
      }
    ]
}
{
  "node_type":"list",
  "contents":
    [
      {
        "node_type":"shader_def",
        "type":
          {
            "node_type":"type",
            "attributes":[],
            "name":"surface"
          },
        "name":"show_side",
        "arguments":
          {
            "node_type":"list",
            "contents":
              [
                {
                  "node_type":"type_variables_def",
                  "type":
                    {
                      "node_type":"type",
                      "attributes":[],
                      "name":"color"
                    },
                  "variables":
                    {
                      "node_type":"list",
                      "contents":
                        [
                          {
                            "node_type":"variable_def",
                            "name":"outsidecol",
                            "definition":

                          }
                        ]
                    }
                },
                {
                  "node_type":"type_variables_def",
                  "type":
                    {
                      "node_type":"type",
                      "attributes":[],
                      "name":"color"
                    },
                  "variables":
                    {
                      "node_type":"list",
                      "contents":
                        [
                          {
                            "node_type":"variable_def",
                            "name":"insidecol",
                            "definition":

                          }
                        ]
                    }
                }
              ]
          }
      }
    ]
}
{
  "node_type":"list",
  "contents":
    [
      {
        "node_type":"shader_def",
        "type":
          {
            "node_type":"type",
            "attributes":[],
            "name":"surface"
          },
        "name":"show_sphere_st",
        "arguments":
          {
            "node_type":"list",
            "contents":[]
          }
      }
    ]
}
{
  "node_type":"list",
  "contents":
    [
      {
        "node_type":"shader_def",
        "type":
          {
            "node_type":"type",
            "attributes":[],
            "name":"surface"
          },
        "name":"show_st",
        "arguments":
          {
            "node_type":"list",
            "contents":[]
          }
      }
    ]
}
{
  "node_type":"list",
  "contents":
    [
      {
        "node_type":"shader_def",
        "type":
          {
            "node_type":"type",
            "attributes":[],
            "name":"surface"
          },
        "name":"showuser",
        "arguments":
          {
            "node_type":"list",
            "contents":
              [
                {
                  "node_type":"type_variables_def",
                  "type":
                    {
                      "node_type":"type",
                      "attributes": ["varying"],
                      "name":"color"
                    },
                  "variables":
                    {
                      "node_type":"list",
                      "contents":
                        [
                          {
                            "node_type":"variable_def",
                            "name":"myvcolor",
                            "definition":

                          }
                        ]
                    }
                }
              ]
          }
      }
    ]
}
{
  "node_type":"list",
  "contents":
    [
      {
        "node_type":"shader_def",
        "type":
          {
            "node_type":"type",
            "attributes":[],
            "name":"surface"
          },
        "name":"uvtest",
        "arguments":
          {
            "node_type":"list",
            "contents":
              [
                {
                  "node_type":"type_variables_def",
                  "type":
                    {
                      "node_type":"type",
                      "attributes":[],
                      "name":"float"
                    },
                  "variables":
                    {
                      "node_type":"list",
                      "contents":
                        [
                          {
                            "node_type":"variable_def",
                            "name":"Ka",
                            "definition":

                          }
                        ]
                    }
                },
                {
                  "node_type":"type_variables_def",
                  "type":
                    {
                      "node_type":"type",
                      "attributes":[],
                      "name":"float"
                    },
                  "variables":
                    {
                      "node_type":"list",
                      "contents":
                        [
                          {
                            "node_type":"variable_def",
                            "name":"Kd",
                            "definition":

                          }
                        ]
                    }
                },
                {
                  "node_type":"type_variables_def",
                  "type":
                    {
                      "node_type":"type",
                      "attributes":[],
                      "name":"float"
                    },
                  "variables":
                    {
                      "node_type":"list",
                      "contents":
                        [
                          {
                            "node_type":"variable_def",
                            "name":"Ks",
                            "definition":

                          }
                        ]
                    }
                },
                {
                  "node_type":"type_variables_def",
                  "type":
                    {
                      "node_type":"type",
                      "attributes":[],
                      "name":"float"
                    },
                  "variables":
                    {
                      "node_type":"list",
                      "contents":
                        [
                          {
                            "node_type":"variable_def",
                            "name":"roughness",
                            "definition":

                          }
                        ]
                    }
                },
                {
                  "node_type":"type_variables_def",
                  "type":
                    {
                      "node_type":"type",
                      "attributes":[],
                      "name":"color"
                    },
                  "variables":
                    {
                      "node_type":"list",
                      "contents":
                        [
                          {
                            "node_type":"variable_def",
                            "name":"specularcolor",
                            "definition":

                          }
                        ]
                    }
                }
              ]
          }
      }
    ]
}
{
  "node_type":"list",
  "contents":
    [
      {
        "node_type":"shader_def",
        "type":
          {
            "node_type":"type",
            "attributes":[],
            "name":"displacement"
          },
        "name":"wavy",
        "arguments":
          {
            "node_type":"list",
            "contents":
              [
                {
                  "node_type":"type_variables_def",
                  "type":
                    {
                      "node_type":"type",
                      "attributes":[],
                      "name":"float"
                    },
                  "variables":
                    {
                      "node_type":"list",
                      "contents":
                        [
                          {
                            "node_type":"variable_def",
                            "name":"amplitude",
                            "definition":

                          }
                        ]
                    }
                },
                {
                  "node_type":"type_variables_def",
                  "type":
                    {
                      "node_type":"type",
                      "attributes":[],
                      "name":"float"
                    },
                  "variables":
                    {
                      "node_type":"list",
                      "contents":
                        [
                          {
                            "node_type":"variable_def",
                            "name":"freq",
                            "definition":

                          }
                        ]
                    }
                }
              ]
          }
      }
    ]
}
